EESchema Schematic File Version 4
LIBS:iccfpga-dev-cache
EELAYER 30 0
EELAYER END
$Descr A4 11693 8268
encoding utf-8
Sheet 4 5
Title ""
Date ""
Rev ""
Comp ""
Comment1 ""
Comment2 ""
Comment3 ""
Comment4 ""
$EndDescr
Wire Wire Line
	4250 4600 4550 4600
Wire Wire Line
	4550 4600 4850 4600
Wire Wire Line
	3850 4600 3850 4650
Wire Wire Line
	3850 4100 4300 4100
Wire Wire Line
	4650 4000 4650 3950
Wire Wire Line
	4650 4250 4650 4200
Wire Wire Line
	3850 4100 3850 4600
Wire Wire Line
	4750 4100 4750 4300
Wire Wire Line
	3150 4750 3150 4900
Connection ~ 4550 4600
Connection ~ 4250 4600
Wire Wire Line
	4550 4600 4550 4650
Wire Wire Line
	4250 4600 4250 4650
Connection ~ 3850 4600
Wire Wire Line
	3950 4600 3850 4600
Wire Wire Line
	3600 3950 3600 4100
Connection ~ 3850 4100
Wire Wire Line
	3550 3950 3600 3950
Wire Wire Line
	3600 4100 3850 4100
Wire Wire Line
	4600 4100 4750 4100
Wire Wire Line
	4600 4250 4650 4250
Wire Wire Line
	4250 4250 4300 4250
Wire Wire Line
	4250 4150 4250 4250
Wire Wire Line
	3550 4150 4250 4150
Wire Wire Line
	4600 3950 4650 3950
Wire Wire Line
	4250 3950 4300 3950
Wire Wire Line
	4250 4050 4250 3950
Wire Wire Line
	3550 4050 4250 4050
Wire Wire Line
	4150 4600 4250 4600
Wire Wire Line
	3150 4550 3150 4450
Wire Wire Line
	3550 4250 3600 4250
Wire Wire Line
	3600 4250 3600 4300
$Comp
L iccfpga-dev-rescue:USBLC6-2 U8
U 1 1 5B1417D6
P 4450 4100
F 0 "U8" V 4750 4150 60  0000 C CNN
F 1 "USBLC6" V 4675 4100 60  0000 C CNN
F 2 "Package_TO_SOT_SMD:SOT-23-6" H 4475 3950 60  0001 C CNN
F 3 "" H 4475 3950 60  0001 C CNN
F 4 "497-5235-1-ND" H 4450 4100 60  0001 C CNN "OrderNr"
F 5 "D" H 4450 4100 60  0001 C CNN "Distributor"
F 6 "USBLC6-2SC6" H 4450 4100 60  0001 C CNN "Manufacturer"
	1    4450 4100
	0    -1   -1   0   
$EndComp
Text GLabel 4850 4600 2    60   Output ~ 0
POWER_USB
Text Label 5200 4200 0    60   ~ 0
D+
Text Label 5200 4000 0    60   ~ 0
D-
$Comp
L iccfpga-dev-rescue:Ferrite_Bead_Small L7
U 1 1 5B1476A3
P 3150 4650
F 0 "L7" H 3225 4700 50  0000 L CNN
F 1 "74279220181" V 3000 4250 50  0000 L CNN
F 2 "Resistor_SMD:R_0805_2012Metric" V 3080 4650 50  0001 C CNN
F 3 "" H 3150 4650 50  0001 C CNN
F 4 "D" H 3150 4650 60  0001 C CNN "Distributor"
F 5 "MMZ2012S181ATD25" H 3150 4650 60  0001 C CNN "Manufacturer"
F 6 "445-172864-1-ND" H -2300 -1500 50  0001 C CNN "OrderNr"
	1    3150 4650
	1    0    0    -1  
$EndComp
Text Label 4500 4600 0    60   ~ 0
USB_5V
$Comp
L iccfpga-dev-rescue:GND #PWR0190
U 1 1 5B145790
P 4550 4950
F 0 "#PWR0190" H 4550 4700 50  0001 C CNN
F 1 "GND" H 4550 4800 50  0000 C CNN
F 2 "" H 4550 4950 50  0000 C CNN
F 3 "" H 4550 4950 50  0000 C CNN
	1    4550 4950
	1    0    0    -1  
$EndComp
$Comp
L iccfpga-dev-rescue:C C84
U 1 1 5B145653
P 4550 4800
F 0 "C84" H 4575 4900 50  0000 L CNN
F 1 "4.7µ" V 4400 4650 50  0000 L CNN
F 2 "Capacitor_SMD:C_0603_1608Metric" H 4588 4650 50  0001 C CNN
F 3 "" H 4550 4800 50  0001 C CNN
F 4 "CL10A475KP8NNNC" H -2300 -1500 50  0001 C CNN "Manufacturer"
F 5 "1276-1044-1-ND" H -2300 -1500 50  0001 C CNN "OrderNr"
F 6 "D" H -2300 -1500 50  0001 C CNN "Distributor"
	1    4550 4800
	-1   0    0    1   
$EndComp
$Comp
L iccfpga-dev-rescue:GND #PWR0184
U 1 1 5B1445AA
P 4250 4950
F 0 "#PWR0184" H 4250 4700 50  0001 C CNN
F 1 "GND" H 4250 4800 50  0000 C CNN
F 2 "" H 4250 4950 50  0000 C CNN
F 3 "" H 4250 4950 50  0000 C CNN
	1    4250 4950
	1    0    0    -1  
$EndComp
$Comp
L iccfpga-dev-rescue:GND #PWR0183
U 1 1 5B144551
P 3850 4950
F 0 "#PWR0183" H 3850 4700 50  0001 C CNN
F 1 "GND" H 3850 4800 50  0000 C CNN
F 2 "" H 3850 4950 50  0000 C CNN
F 3 "" H 3850 4950 50  0000 C CNN
	1    3850 4950
	1    0    0    -1  
$EndComp
$Comp
L iccfpga-dev-rescue:C C83
U 1 1 5B1442E8
P 4250 4800
F 0 "C83" H 4150 4900 50  0000 L CNN
F 1 "100n" H 4050 4700 50  0000 L CNN
F 2 "Capacitor_SMD:C_0603_1608Metric" H 4288 4650 50  0001 C CNN
F 3 "" H 4250 4800 50  0000 C CNN
F 4 "C0603C104M4RACTU" H -2300 -1500 50  0001 C CNN "Manufacturer"
F 5 "399-1099-1-ND" H -2300 -1500 50  0001 C CNN "OrderNr"
F 6 "D" H -2300 -1500 50  0001 C CNN "Distributor"
	1    4250 4800
	-1   0    0    1   
$EndComp
$Comp
L iccfpga-dev-rescue:C C81
U 1 1 5B144255
P 3850 4800
F 0 "C81" H 3750 4900 50  0000 L CNN
F 1 "10n" H 3850 4700 50  0000 L CNN
F 2 "Capacitor_SMD:C_0603_1608Metric" H 3888 4650 50  0001 C CNN
F 3 "" H 3850 4800 50  0000 C CNN
F 4 "C0603C103M5RACTU" H -2300 -1500 50  0001 C CNN "Manufacturer"
F 5 "399-7842-1-ND" H -2300 -1500 50  0001 C CNN "OrderNr"
F 6 "D" H -2300 -1500 50  0001 C CNN "Distributor"
	1    3850 4800
	-1   0    0    1   
$EndComp
$Comp
L iccfpga-dev-rescue:Ferrite_Bead_Small L8
U 1 1 5B1440D7
P 4050 4600
F 0 "L8" H 4125 4650 50  0000 L CNN
F 1 "74279220181" H 3500 4550 50  0000 L CNN
F 2 "Resistor_SMD:R_0805_2012Metric" V 3980 4600 50  0001 C CNN
F 3 "" H 4050 4600 50  0001 C CNN
F 4 "D" H 4050 4600 60  0001 C CNN "Distributor"
F 5 "MMZ2012S181ATD25" H 4050 4600 60  0001 C CNN "Manufacturer"
F 6 "445-172864-1-ND" H -2300 -1500 50  0001 C CNN "OrderNr"
	1    4050 4600
	0    -1   -1   0   
$EndComp
$Comp
L iccfpga-dev-rescue:GND #PWR0187
U 1 1 5B141CF1
P 4750 4300
F 0 "#PWR0187" H 4750 4050 50  0001 C CNN
F 1 "GND" H 4750 4150 50  0000 C CNN
F 2 "" H 4750 4300 50  0000 C CNN
F 3 "" H 4750 4300 50  0000 C CNN
	1    4750 4300
	1    0    0    -1  
$EndComp
$Comp
L iccfpga-dev-rescue:MYUSB_B P1
U 1 1 5ADF9B57
P 3250 4150
F 0 "P1" H 3450 3950 50  0000 C CNN
F 1 "10104110-0001LF" H 3100 4350 50  0000 C CNN
F 2 "Connector_USB:USB_Micro-B_Amphenol_10103594-0001LF_Horizontal" V 3200 4050 50  0001 C CNN
F 3 "" V 3200 4050 50  0000 C CNN
F 4 "609-4050-1-ND" H 3250 4150 60  0001 C CNN "OrderNr"
F 5 "D" H 3250 4150 60  0001 C CNN "Distributor"
F 6 "10103594-0001LF" H 3250 4150 60  0001 C CNN "Manufacturer"
	1    3250 4150
	0    -1   1    0   
$EndComp
$Comp
L iccfpga-dev-rescue:GND #PWR0172
U 1 1 5ADF9A44
P 3150 4900
F 0 "#PWR0172" H 3150 4650 50  0001 C CNN
F 1 "GND" H 3150 4750 50  0000 C CNN
F 2 "" H 3150 4900 50  0000 C CNN
F 3 "" H 3150 4900 50  0000 C CNN
	1    3150 4900
	1    0    0    -1  
$EndComp
$Comp
L iccfpga-dev-rescue:GND #PWR0180
U 1 1 5ADF9A3E
P 3600 4300
F 0 "#PWR0180" H 3600 4050 50  0001 C CNN
F 1 "GND" H 3600 4150 50  0000 C CNN
F 2 "" H 3600 4300 50  0000 C CNN
F 3 "" H 3600 4300 50  0000 C CNN
	1    3600 4300
	1    0    0    -1  
$EndComp
$Comp
L Interface_USB:CP2102N-A01-GQFN24 U?
U 1 1 5DD962D2
P 7150 3800
AR Path="/5AEC4D13/5DD962D2" Ref="U?"  Part="1" 
AR Path="/5AEC91D6/5DD962D2" Ref="U12"  Part="1" 
F 0 "U12" H 7250 4700 50  0000 C CNN
F 1 "CP2102N" H 7650 4600 50  0000 C CNN
F 2 "Package_DFN_QFN:QFN-24-1EP_4x4mm_P0.5mm_EP2.6x2.6mm" H 7600 3000 50  0001 L CNN
F 3 "http://www.silabs.com/support%20documents/technicaldocs/cp2102n-datasheet.pdf" H 7200 2750 50  0001 C CNN
F 4 "D" H -2300 -1500 50  0001 C CNN "Distributor"
F 5 "CP2102N-A02-GQFN24R" H -2300 -1500 50  0001 C CNN "Manufacturer"
F 6 "336-5888-1-ND" H -2300 -1500 50  0001 C CNN "OrderNr"
	1    7150 3800
	1    0    0    -1  
$EndComp
NoConn ~ 7750 3300
NoConn ~ 7750 3400
NoConn ~ 7750 3700
NoConn ~ 7750 3800
NoConn ~ 7750 3900
NoConn ~ 7750 3200
NoConn ~ 7750 4100
NoConn ~ 7750 4200
NoConn ~ 7750 4300
NoConn ~ 7750 4400
Wire Wire Line
	4650 4200 6550 4200
Wire Wire Line
	6550 4300 5650 4300
Wire Wire Line
	5650 4300 5650 4000
Wire Wire Line
	4650 4000 5650 4000
Wire Wire Line
	6550 3800 6450 3800
Wire Wire Line
	6450 3800 6450 4100
Wire Wire Line
	6450 4100 6550 4100
Text Label 6300 3800 2    60   ~ 0
USB_5V
Wire Wire Line
	6450 3800 6000 3800
Connection ~ 6450 3800
NoConn ~ 6550 3500
NoConn ~ 6550 3600
$Comp
L iccfpga-dev-rescue:R R3
U 1 1 5DD9B42E
P 6450 3000
F 0 "R3" V 6530 3000 50  0000 C CNN
F 1 "1k" V 6450 3000 50  0000 C CNN
F 2 "Resistor_SMD:R_0603_1608Metric" V 6380 3000 50  0001 C CNN
F 3 "" H 6450 3000 50  0000 C CNN
F 4 "RC0603FR-071KL" H -2300 -1500 50  0001 C CNN "Manufacturer"
F 5 "311-1.00KHRCT-ND" H -2300 -1500 50  0001 C CNN "OrderNr"
F 6 "D" H -2300 -1500 50  0001 C CNN "Distributor"
	1    6450 3000
	1    0    0    -1  
$EndComp
Wire Wire Line
	6450 3150 6450 3200
Wire Wire Line
	6450 3200 6550 3200
Wire Wire Line
	7750 3500 8200 3500
Wire Wire Line
	7750 3600 8200 3600
Wire Wire Line
	7150 2900 7150 2750
Wire Wire Line
	7150 2750 7050 2750
Wire Wire Line
	6450 2750 6450 2850
Wire Wire Line
	7050 2900 7050 2750
Connection ~ 7050 2750
Wire Wire Line
	7050 2750 6450 2750
$Comp
L iccfpga-dev-rescue:C C1
U 1 1 5DDA0875
P 5900 3000
F 0 "C1" H 5800 3100 50  0000 L CNN
F 1 "100n" H 5700 2900 50  0000 L CNN
F 2 "Capacitor_SMD:C_0603_1608Metric" H 5938 2850 50  0001 C CNN
F 3 "" H 5900 3000 50  0000 C CNN
F 4 "C0603C104M4RACTU" H -2300 -1500 50  0001 C CNN "Manufacturer"
F 5 "399-1099-1-ND" H -2300 -1500 50  0001 C CNN "OrderNr"
F 6 "D" H -2300 -1500 50  0001 C CNN "Distributor"
	1    5900 3000
	-1   0    0    1   
$EndComp
Wire Wire Line
	6450 2750 6150 2750
Wire Wire Line
	6150 2750 6150 2850
Connection ~ 6450 2750
Wire Wire Line
	6150 2750 5900 2750
Wire Wire Line
	5900 2750 5900 2850
Connection ~ 6150 2750
$Comp
L iccfpga-dev-rescue:GND #PWR0137
U 1 1 5DDA2908
P 5900 3150
F 0 "#PWR0137" H 5900 2900 50  0001 C CNN
F 1 "GND" H 5905 2977 50  0000 C CNN
F 2 "" H 5900 3150 50  0001 C CNN
F 3 "" H 5900 3150 50  0001 C CNN
	1    5900 3150
	1    0    0    -1  
$EndComp
$Comp
L iccfpga-dev-rescue:GND #PWR0138
U 1 1 5DDA3915
P 6150 3150
F 0 "#PWR0138" H 6150 2900 50  0001 C CNN
F 1 "GND" H 6155 2977 50  0000 C CNN
F 2 "" H 6150 3150 50  0001 C CNN
F 3 "" H 6150 3150 50  0001 C CNN
	1    6150 3150
	1    0    0    -1  
$EndComp
$Comp
L iccfpga-dev-rescue:GND #PWR0139
U 1 1 5DDA65C9
P 7150 4700
F 0 "#PWR0139" H 7150 4450 50  0001 C CNN
F 1 "GND" H 7155 4527 50  0000 C CNN
F 2 "" H 7150 4700 50  0001 C CNN
F 3 "" H 7150 4700 50  0001 C CNN
	1    7150 4700
	1    0    0    -1  
$EndComp
$Comp
L iccfpga-dev-rescue:GND #PWR0140
U 1 1 5DDA6A0C
P 7250 4700
F 0 "#PWR0140" H 7250 4450 50  0001 C CNN
F 1 "GND" H 7255 4527 50  0000 C CNN
F 2 "" H 7250 4700 50  0001 C CNN
F 3 "" H 7250 4700 50  0001 C CNN
	1    7250 4700
	1    0    0    -1  
$EndComp
Text GLabel 8200 3600 2    60   Output ~ 0
CP2102_TXD
Text GLabel 8200 3500 2    60   Input ~ 0
CP2102_RXD
$Comp
L iccfpga-dev-rescue:C C2
U 1 1 5DFF24FB
P 6150 3000
F 0 "C2" H 6175 3100 50  0000 L CNN
F 1 "4.7µ" V 6000 2850 50  0000 L CNN
F 2 "Capacitor_SMD:C_0603_1608Metric" H 6188 2850 50  0001 C CNN
F 3 "" H 6150 3000 50  0001 C CNN
F 4 "CL10A475KP8NNNC" H -700 -3300 50  0001 C CNN "Manufacturer"
F 5 "1276-1044-1-ND" H -700 -3300 50  0001 C CNN "OrderNr"
F 6 "D" H -2300 -1500 50  0001 C CNN "Distributor"
	1    6150 3000
	-1   0    0    1   
$EndComp
$EndSCHEMATC
