EESchema Schematic File Version 4
LIBS:iccfpga-dev-cache
EELAYER 30 0
EELAYER END
$Descr A4 11693 8268
encoding utf-8
Sheet 5 5
Title ""
Date ""
Rev ""
Comp ""
Comment1 ""
Comment2 ""
Comment3 ""
Comment4 ""
$EndDescr
$Comp
L iccfpga-dev-rescue:Conn_02x20_Odd_Even J1
U 1 1 5ADEA1EA
P 5550 3750
F 0 "J1" H 5600 4750 50  0000 C CNN
F 1 "Raspberry Pi GPIO" H 5600 2650 50  0001 C CNN
F 2 "Connector_PinHeader_2.54mm:PinHeader_2x20_P2.54mm_Vertical" H 5550 3750 50  0001 C CNN
F 3 "" H 5550 3750 50  0001 C CNN
F 4 "D" H 1000 800 50  0001 C CNN "Distributor"
F 5 "ESQ-120-24-T-D" H 1000 800 50  0001 C CNN "Manufacturer"
F 6 "SAM15592-ND" H 1000 800 50  0001 C CNN "OrderNr"
	1    5550 3750
	1    0    0    -1  
$EndComp
$Comp
L iccfpga-dev-rescue:GND #PWR0223
U 1 1 5ADF6CBB
P 5850 3050
F 0 "#PWR0223" H 5850 2800 50  0001 C CNN
F 1 "GND" V 5900 2900 50  0000 C CNN
F 2 "" H 5850 3050 50  0001 C CNN
F 3 "" H 5850 3050 50  0001 C CNN
	1    5850 3050
	0    -1   -1   0   
$EndComp
$Comp
L iccfpga-dev-rescue:GND #PWR0224
U 1 1 5ADF6D5D
P 5850 3450
F 0 "#PWR0224" H 5850 3200 50  0001 C CNN
F 1 "GND" V 5850 3250 50  0000 C CNN
F 2 "" H 5850 3450 50  0001 C CNN
F 3 "" H 5850 3450 50  0001 C CNN
	1    5850 3450
	0    -1   -1   0   
$EndComp
$Comp
L iccfpga-dev-rescue:GND #PWR0225
U 1 1 5ADF6DF8
P 5850 3750
F 0 "#PWR0225" H 5850 3500 50  0001 C CNN
F 1 "GND" V 5850 3550 50  0000 C CNN
F 2 "" H 5850 3750 50  0001 C CNN
F 3 "" H 5850 3750 50  0001 C CNN
	1    5850 3750
	0    -1   -1   0   
$EndComp
$Comp
L iccfpga-dev-rescue:GND #PWR0226
U 1 1 5ADF6E93
P 5850 4250
F 0 "#PWR0226" H 5850 4000 50  0001 C CNN
F 1 "GND" V 5850 4050 50  0000 C CNN
F 2 "" H 5850 4250 50  0001 C CNN
F 3 "" H 5850 4250 50  0001 C CNN
	1    5850 4250
	0    -1   -1   0   
$EndComp
$Comp
L iccfpga-dev-rescue:GND #PWR0222
U 1 1 5ADF70B9
P 5350 4750
F 0 "#PWR0222" H 5350 4500 50  0001 C CNN
F 1 "GND" V 5350 4550 50  0000 C CNN
F 2 "" H 5350 4750 50  0001 C CNN
F 3 "" H 5350 4750 50  0001 C CNN
	1    5350 4750
	0    1    1    0   
$EndComp
$Comp
L iccfpga-dev-rescue:GND #PWR0221
U 1 1 5ADF7154
P 5350 4050
F 0 "#PWR0221" H 5350 3800 50  0001 C CNN
F 1 "GND" V 5350 3850 50  0000 C CNN
F 2 "" H 5350 4050 50  0001 C CNN
F 3 "" H 5350 4050 50  0001 C CNN
	1    5350 4050
	0    1    1    0   
$EndComp
$Comp
L iccfpga-dev-rescue:GND #PWR0220
U 1 1 5ADF71EF
P 5350 3250
F 0 "#PWR0220" H 5350 3000 50  0001 C CNN
F 1 "GND" H 5350 3100 50  0000 C CNN
F 2 "" H 5350 3250 50  0001 C CNN
F 3 "" H 5350 3250 50  0001 C CNN
	1    5350 3250
	0    1    1    0   
$EndComp
Wire Wire Line
	5850 2950 5950 2950
Wire Wire Line
	5950 2950 5950 2850
Connection ~ 5950 2850
Wire Wire Line
	5850 2850 5950 2850
Text GLabel 6700 2850 2    60   Output ~ 0
POWER_PI
Wire Wire Line
	5950 2850 6700 2850
Text GLabel 6700 3150 2    60   Output ~ 0
PI_TXD
Text GLabel 6700 3250 2    60   Input ~ 0
PI_RXD
Text GLabel 6700 4550 2    60   Output ~ 0
PI_FPGA_TMS
Text GLabel 6700 4350 2    60   Output ~ 0
PI_FPGA_TCK
Text GLabel 6700 4650 2    60   Output ~ 0
PI_FPGA_TDI
Text GLabel 6700 4750 2    60   Input ~ 0
PI_FPGA_TDO
Text GLabel 4550 4650 0    60   Input ~ 0
PI_RV_TDO
$Comp
L iccfpga-dev-rescue:R R14
U 1 1 5DF55CF0
P 6250 4350
F 0 "R14" V 6350 4350 50  0000 C CNN
F 1 "22" V 6250 4350 50  0000 C CNN
F 2 "Resistor_SMD:R_0603_1608Metric" V 6180 4350 50  0001 C CNN
F 3 "" H 6250 4350 50  0001 C CNN
F 4 "D" H 1000 800 50  0001 C CNN "Distributor"
F 5 "CRGCQ0603F22R" H 1000 800 50  0001 C CNN "Manufacturer"
F 6 "A129668CT-ND" H 1000 800 50  0001 C CNN "OrderNr"
	1    6250 4350
	0    -1   -1   0   
$EndComp
Wire Wire Line
	5850 4350 6100 4350
Wire Wire Line
	6400 4350 6700 4350
Wire Wire Line
	6700 4550 5850 4550
Wire Wire Line
	6700 4650 5850 4650
Wire Wire Line
	6700 4750 5850 4750
Wire Wire Line
	6700 3150 5850 3150
Wire Wire Line
	5850 3250 6700 3250
Wire Wire Line
	5100 4350 5350 4350
Wire Wire Line
	4550 4250 5350 4250
Wire Wire Line
	4550 4550 5350 4550
Wire Wire Line
	4550 4450 5350 4450
Wire Wire Line
	4550 4350 4800 4350
$Comp
L iccfpga-dev-rescue:R R13
U 1 1 5DF56C72
P 4950 4350
F 0 "R13" V 4850 4350 50  0000 C CNN
F 1 "22" V 4950 4350 50  0000 C CNN
F 2 "Resistor_SMD:R_0603_1608Metric" V 4880 4350 50  0001 C CNN
F 3 "" H 4950 4350 50  0001 C CNN
F 4 "D" H 1000 800 50  0001 C CNN "Distributor"
F 5 "CRGCQ0603F22R" H 1000 800 50  0001 C CNN "Manufacturer"
F 6 "A129668CT-ND" H 1000 800 50  0001 C CNN "OrderNr"
	1    4950 4350
	0    -1   -1   0   
$EndComp
Text GLabel 4550 4550 0    60   Output ~ 0
PI_RV_RESET
Text GLabel 4550 4350 0    60   Output ~ 0
PI_RV_TCK
Text GLabel 4550 4450 0    60   Output ~ 0
PI_RV_TDI
Text GLabel 4550 4250 0    60   Output ~ 0
PI_RV_TMS
Wire Wire Line
	4550 4650 5350 4650
$Comp
L iccfpga-dev-rescue:GND #PWR0159
U 1 1 5E1C690A
P 5850 4450
F 0 "#PWR0159" H 5850 4200 50  0001 C CNN
F 1 "GND" V 5850 4250 50  0000 C CNN
F 2 "" H 5850 4450 50  0001 C CNN
F 3 "" H 5850 4450 50  0001 C CNN
	1    5850 4450
	0    -1   -1   0   
$EndComp
Text Notes 7550 4800 0    60   ~ 0
GPIO21
Text Notes 7550 4700 0    60   ~ 0
GPIO20
Text Notes 7550 4600 0    60   ~ 0
GPIO16
Text Notes 7550 4400 0    60   ~ 0
GPIO12
Text Notes 3500 4300 0    60   ~ 0
GPIO5
Text Notes 3500 4400 0    60   ~ 0
GPIO6
Text Notes 3500 4500 0    60   ~ 0
GPIO13
Text Notes 3500 4600 0    60   ~ 0
GPIO19
Text Notes 3500 4700 0    60   ~ 0
GPIO26
Text Notes 5250 2650 0    60   ~ 0
Raspberry Pi GPIO
$EndSCHEMATC
